%YAML 1.1
%TAG !u! tag:unity3d.com,2011:
--- !u!114 &11400000
MonoBehaviour:
  m_ObjectHideFlags: 0
  m_CorrespondingSourceObject: {fileID: 0}
  m_PrefabInstance: {fileID: 0}
  m_PrefabAsset: {fileID: 0}
  m_GameObject: {fileID: 0}
  m_Enabled: 1
  m_EditorHideFlags: 0
  m_Script: {fileID: 11500000, guid: 27bef6fb0957b9a428fed0a2039c77ec, type: 3}
  m_Name: Nephetes
  m_EditorClassIdentifier: 
  name: Nephetes
  str: 7
  agi: 7
  vit: 40
  level: 1
  currAttack: 0
  attack: 0
  currSpeed: 0
  speed: 0
  currDefense: 0
  defense: 0
  currHealth: 0
  health: 0
  image: {fileID: 21300000, guid: c9ebc6d2793bbc944bb0002f13a771f9, type: 3}
