%YAML 1.1
%TAG !u! tag:unity3d.com,2011:
--- !u!114 &11400000
MonoBehaviour:
  m_ObjectHideFlags: 0
  m_CorrespondingSourceObject: {fileID: 0}
  m_PrefabInstance: {fileID: 0}
  m_PrefabAsset: {fileID: 0}
  m_GameObject: {fileID: 0}
  m_Enabled: 1
  m_EditorHideFlags: 0
  m_Script: {fileID: 11500000, guid: 887a85c775125d743a295b217c833be9, type: 3}
  m_Name: AbsoluteHeal
  m_EditorClassIdentifier: 
  name: Absolute Heal
  cooldown: 8
  image: {fileID: 10907, guid: 0000000000000000f000000000000000, type: 0}
  substract: 20
